\relax 
\@writefile{toc}{\contentsline {section}{\numberline {1}Kinematics}{4}}
\@writefile{toc}{\contentsline {subsection}{\numberline {1.1}Units}{4}}
\@writefile{toc}{\contentsline {subsection}{\numberline {1.2}Variables}{4}}
\@writefile{toc}{\contentsline {subsection}{\numberline {1.3}Formulas}{4}}
\@writefile{toc}{\contentsline {section}{\numberline {2}Forces}{4}}
\@writefile{toc}{\contentsline {subsection}{\numberline {2.1}Units}{4}}
\@writefile{toc}{\contentsline {subsection}{\numberline {2.2}Variables}{4}}
\@writefile{toc}{\contentsline {subsection}{\numberline {2.3}Formulas}{5}}
\@writefile{toc}{\contentsline {section}{\numberline {3}Uniform Circular Motion}{5}}
\@writefile{toc}{\contentsline {subsection}{\numberline {3.1}Variables}{5}}
\@writefile{toc}{\contentsline {subsection}{\numberline {3.2}Formulas}{5}}
\@writefile{toc}{\contentsline {section}{\numberline {4}Work, Energy, Power and Momentum}{6}}
\@writefile{toc}{\contentsline {subsection}{\numberline {4.1}Units}{6}}
\@writefile{toc}{\contentsline {subsection}{\numberline {4.2}Variables}{6}}
\@writefile{toc}{\contentsline {subsection}{\numberline {4.3}Formulas}{6}}
\@writefile{toc}{\contentsline {section}{\numberline {5}Angular}{7}}
\@writefile{toc}{\contentsline {subsection}{\numberline {5.1}Units}{7}}
\@writefile{toc}{\contentsline {subsection}{\numberline {5.2}Variables}{7}}
\@writefile{toc}{\contentsline {subsection}{\numberline {5.3}Formulas}{7}}
\@writefile{toc}{\contentsline {section}{\numberline {6}Simple Harmonic Motion}{8}}
\@writefile{toc}{\contentsline {subsection}{\numberline {6.1}Units}{8}}
\@writefile{toc}{\contentsline {subsection}{\numberline {6.2}Variables}{8}}
\@writefile{toc}{\contentsline {subsection}{\numberline {6.3}Formulas}{8}}
\@writefile{toc}{\contentsline {section}{\numberline {7}Fluids}{9}}
\@writefile{toc}{\contentsline {subsection}{\numberline {7.1}Units}{9}}
\@writefile{toc}{\contentsline {subsection}{\numberline {7.2}Variables}{9}}
\@writefile{toc}{\contentsline {subsection}{\numberline {7.3}Formulas}{9}}
\@writefile{toc}{\contentsline {section}{\numberline {8}Thermodynamics}{10}}
\@writefile{toc}{\contentsline {subsection}{\numberline {8.1}Units}{10}}
\@writefile{toc}{\contentsline {subsection}{\numberline {8.2}Variables}{10}}
\@writefile{toc}{\contentsline {subsection}{\numberline {8.3}Formulas}{10}}
\@writefile{toc}{\contentsline {section}{\numberline {9}Electrostatics}{11}}
\@writefile{toc}{\contentsline {subsection}{\numberline {9.1}Units}{11}}
\@writefile{toc}{\contentsline {subsection}{\numberline {9.2}Variables}{11}}
\@writefile{toc}{\contentsline {subsection}{\numberline {9.3}Formulas}{12}}
\@writefile{toc}{\contentsline {section}{\numberline {10}Circuits}{12}}
\@writefile{toc}{\contentsline {subsection}{\numberline {10.1}Units}{12}}
\@writefile{toc}{\contentsline {subsection}{\numberline {10.2}Variables}{12}}
\@writefile{toc}{\contentsline {subsection}{\numberline {10.3}Formulas}{13}}
\@writefile{toc}{\contentsline {section}{\numberline {11}Magnetism}{14}}
\@writefile{toc}{\contentsline {subsection}{\numberline {11.1}Units}{14}}
\@writefile{toc}{\contentsline {subsection}{\numberline {11.2}Variables}{14}}
\@writefile{toc}{\contentsline {subsection}{\numberline {11.3}Formulas}{14}}
\@writefile{toc}{\contentsline {section}{\numberline {12}Light}{15}}
\@writefile{toc}{\contentsline {subsection}{\numberline {12.1}Variables}{15}}
\@writefile{toc}{\contentsline {subsection}{\numberline {12.2}Formulas}{15}}
\@writefile{toc}{\contentsline {section}{\numberline {13}Modern}{16}}
\@writefile{toc}{\contentsline {subsection}{\numberline {13.1}Variables}{16}}
\@writefile{toc}{\contentsline {subsection}{\numberline {13.2}Particles}{16}}
\@writefile{toc}{\contentsline {subsection}{\numberline {13.3}Formulas}{17}}
\@writefile{toc}{\contentsline {subsection}{\numberline {13.4}People}{17}}
