PWD /Users/ryanyz10/Latex
INPUT /usr/local/texlive/2015/texmf.cnf
INPUT /usr/local/texlive/2015/texmf-dist/web2c/texmf.cnf
INPUT /usr/local/texlive/2015/texmf-var/web2c/pdftex/pdflatex.fmt
INPUT Physics_Formula_Sheet.tex
OUTPUT Physics_Formula_Sheet.log
INPUT /usr/local/texlive/2015/texmf-dist/tex/latex/base/article.cls
INPUT /usr/local/texlive/2015/texmf-dist/tex/latex/base/article.cls
INPUT /usr/local/texlive/2015/texmf-dist/tex/latex/base/size10.clo
INPUT /usr/local/texlive/2015/texmf-dist/tex/latex/base/size10.clo
INPUT /usr/local/texlive/2015/texmf-dist/tex/latex/amsmath/amsmath.sty
INPUT /usr/local/texlive/2015/texmf-dist/tex/latex/amsmath/amsmath.sty
INPUT /usr/local/texlive/2015/texmf-dist/tex/latex/amsmath/amstext.sty
INPUT /usr/local/texlive/2015/texmf-dist/tex/latex/amsmath/amstext.sty
INPUT /usr/local/texlive/2015/texmf-dist/tex/latex/amsmath/amsgen.sty
INPUT /usr/local/texlive/2015/texmf-dist/tex/latex/amsmath/amsgen.sty
INPUT /usr/local/texlive/2015/texmf-dist/tex/latex/amsmath/amsbsy.sty
INPUT /usr/local/texlive/2015/texmf-dist/tex/latex/amsmath/amsbsy.sty
INPUT /usr/local/texlive/2015/texmf-dist/tex/latex/amsmath/amsopn.sty
INPUT /usr/local/texlive/2015/texmf-dist/tex/latex/amsmath/amsopn.sty
INPUT /usr/local/texlive/2015/texmf-dist/tex/latex/psnfss/charter.sty
INPUT /usr/local/texlive/2015/texmf-dist/tex/latex/psnfss/charter.sty
INPUT /usr/local/texlive/2015/texmf-dist/tex/latex/parskip/parskip.sty
INPUT /usr/local/texlive/2015/texmf-dist/tex/latex/parskip/parskip.sty
INPUT /usr/local/texlive/2015/texmf-dist/tex/latex/dirtytalk/dirtytalk.sty
INPUT /usr/local/texlive/2015/texmf-dist/tex/latex/dirtytalk/dirtytalk.sty
INPUT /usr/local/texlive/2015/texmf-dist/tex/latex/oberdiek/kvoptions.sty
INPUT /usr/local/texlive/2015/texmf-dist/tex/latex/oberdiek/kvoptions.sty
INPUT /usr/local/texlive/2015/texmf-dist/tex/latex/graphics/keyval.sty
INPUT /usr/local/texlive/2015/texmf-dist/tex/latex/graphics/keyval.sty
INPUT /usr/local/texlive/2015/texmf-dist/tex/generic/oberdiek/ltxcmds.sty
INPUT /usr/local/texlive/2015/texmf-dist/tex/generic/oberdiek/ltxcmds.sty
INPUT /usr/local/texlive/2015/texmf-dist/tex/generic/oberdiek/kvsetkeys.sty
INPUT /usr/local/texlive/2015/texmf-dist/tex/generic/oberdiek/kvsetkeys.sty
INPUT /usr/local/texlive/2015/texmf-dist/tex/generic/oberdiek/infwarerr.sty
INPUT /usr/local/texlive/2015/texmf-dist/tex/generic/oberdiek/infwarerr.sty
INPUT /usr/local/texlive/2015/texmf-dist/tex/generic/oberdiek/etexcmds.sty
INPUT /usr/local/texlive/2015/texmf-dist/tex/generic/oberdiek/etexcmds.sty
INPUT /usr/local/texlive/2015/texmf-dist/tex/generic/oberdiek/ifluatex.sty
INPUT /usr/local/texlive/2015/texmf-dist/tex/generic/oberdiek/ifluatex.sty
INPUT /usr/local/texlive/2015/texmf-dist/tex/latex/base/ifthen.sty
INPUT /usr/local/texlive/2015/texmf-dist/tex/latex/base/ifthen.sty
INPUT /usr/local/texlive/2015/texmf-dist/tex/latex/siunitx/siunitx.sty
INPUT /usr/local/texlive/2015/texmf-dist/tex/latex/siunitx/siunitx.sty
INPUT /usr/local/texlive/2015/texmf-dist/tex/latex/l3kernel/expl3.sty
INPUT /usr/local/texlive/2015/texmf-dist/tex/latex/l3kernel/expl3.sty
INPUT /usr/local/texlive/2015/texmf-dist/tex/latex/l3kernel/expl3-code.tex
INPUT /usr/local/texlive/2015/texmf-dist/tex/latex/l3kernel/expl3-code.tex
INPUT /usr/local/texlive/2015/texmf-dist/tex/latex/l3kernel/l3unicode-data.def
INPUT /usr/local/texlive/2015/texmf-dist/tex/latex/l3kernel/l3unicode-data.def
INPUT /usr/local/texlive/2015/texmf-dist/tex/latex/l3kernel/l3pdfmode.def
INPUT /usr/local/texlive/2015/texmf-dist/tex/latex/l3kernel/l3pdfmode.def
INPUT /usr/local/texlive/2015/texmf-dist/tex/latex/l3packages/xparse/xparse.sty
INPUT /usr/local/texlive/2015/texmf-dist/tex/latex/l3packages/xparse/xparse.sty
INPUT /usr/local/texlive/2015/texmf-dist/tex/latex/tools/array.sty
INPUT /usr/local/texlive/2015/texmf-dist/tex/latex/tools/array.sty
INPUT /usr/local/texlive/2015/texmf-dist/tex/latex/l3packages/l3keys2e/l3keys2e.sty
INPUT /usr/local/texlive/2015/texmf-dist/tex/latex/l3packages/l3keys2e/l3keys2e.sty
INPUT /usr/local/texlive/2015/texmf-dist/tex/latex/beamer/translator/translator.sty
INPUT /usr/local/texlive/2015/texmf-dist/tex/latex/beamer/translator/translator.sty
INPUT /usr/local/texlive/2015/texmf-dist/tex/latex/beamer/translator/translator.sty
INPUT /usr/local/texlive/2015/texmf-dist/tex/latex/beamer/translator/translator-language-mappings.tex
INPUT /usr/local/texlive/2015/texmf-dist/tex/latex/beamer/translator/translator-language-mappings.tex
INPUT /usr/local/texlive/2015/texmf-dist/tex/latex/microtype/microtype.sty
INPUT /usr/local/texlive/2015/texmf-dist/tex/latex/microtype/microtype.sty
INPUT /usr/local/texlive/2015/texmf-dist/tex/latex/microtype/microtype-pdftex.def
INPUT /usr/local/texlive/2015/texmf-dist/tex/latex/microtype/microtype-pdftex.def
INPUT /usr/local/texlive/2015/texmf-dist/tex/latex/microtype/microtype.cfg
INPUT /usr/local/texlive/2015/texmf-dist/tex/latex/microtype/microtype.cfg
INPUT /usr/local/texlive/2015/texmf-dist/tex/latex/microtype/microtype.cfg
INPUT /usr/local/texlive/2015/texmf-dist/tex/latex/geometry/geometry.sty
INPUT /usr/local/texlive/2015/texmf-dist/tex/latex/geometry/geometry.sty
INPUT /usr/local/texlive/2015/texmf-dist/tex/generic/oberdiek/ifpdf.sty
INPUT /usr/local/texlive/2015/texmf-dist/tex/generic/oberdiek/ifpdf.sty
INPUT /usr/local/texlive/2015/texmf-dist/tex/generic/oberdiek/ifvtex.sty
INPUT /usr/local/texlive/2015/texmf-dist/tex/generic/oberdiek/ifvtex.sty
INPUT /usr/local/texlive/2015/texmf-dist/tex/generic/ifxetex/ifxetex.sty
INPUT /usr/local/texlive/2015/texmf-dist/tex/generic/ifxetex/ifxetex.sty
INPUT Physics_Formula_Sheet.aux
INPUT Physics_Formula_Sheet.aux
OUTPUT Physics_Formula_Sheet.aux
INPUT /usr/local/texlive/2015/texmf-dist/tex/latex/psnfss/ot1bch.fd
INPUT /usr/local/texlive/2015/texmf-dist/tex/latex/psnfss/ot1bch.fd
INPUT /usr/local/texlive/2015/texmf-dist/fonts/map/fontname/texfonts.map
INPUT /usr/local/texlive/2015/texmf-dist/fonts/tfm/bitstrea/charter/bchr7t.tfm
INPUT /usr/local/texlive/2015/texmf-dist/tex/latex/beamer/translator/dicts/translator-basic-dictionary/translator-basic-dictionary-English.dict
INPUT /usr/local/texlive/2015/texmf-dist/tex/latex/beamer/translator/dicts/translator-basic-dictionary/translator-basic-dictionary-English.dict
INPUT /usr/local/texlive/2015/texmf-dist/tex/latex/siunitx/siunitx-abbreviations.cfg
INPUT /usr/local/texlive/2015/texmf-dist/tex/latex/siunitx/siunitx-abbreviations.cfg
INPUT /usr/local/texlive/2015/texmf-dist/tex/latex/microtype/mt-bch.cfg
INPUT /usr/local/texlive/2015/texmf-dist/tex/latex/microtype/mt-bch.cfg
INPUT /usr/local/texlive/2015/texmf-dist/tex/latex/microtype/mt-cmr.cfg
INPUT /usr/local/texlive/2015/texmf-dist/tex/latex/microtype/mt-cmr.cfg
INPUT /usr/local/texlive/2015/texmf-dist/fonts/tfm/public/amsfonts/cmextra/cmex7.tfm
INPUT /usr/local/texlive/2015/texmf-dist/fonts/tfm/public/amsfonts/cmextra/cmex7.tfm
INPUT /usr/local/texlive/2015/texmf-dist/fonts/tfm/public/cm/cmss10.tfm
INPUT /usr/local/texlive/2015/texmf-dist/fonts/tfm/public/cm/cmss8.tfm
INPUT /usr/local/texlive/2015/texmf-dist/fonts/tfm/public/cm/cmss8.tfm
INPUT /usr/local/texlive/2015/texmf-dist/fonts/tfm/public/cm/cmtt10.tfm
INPUT /usr/local/texlive/2015/texmf-dist/fonts/tfm/public/cm/cmtt8.tfm
INPUT /usr/local/texlive/2015/texmf-dist/fonts/tfm/public/cm/cmtt8.tfm
INPUT /usr/local/texlive/2015/texmf-dist/fonts/tfm/bitstrea/charter/bchr7t.tfm
INPUT /usr/local/texlive/2015/texmf-dist/fonts/tfm/bitstrea/charter/bchr7t.tfm
INPUT /usr/local/texlive/2015/texmf-dist/fonts/tfm/public/cm/cmr12.tfm
INPUT /usr/local/texlive/2015/texmf-dist/fonts/tfm/public/cm/cmr8.tfm
INPUT /usr/local/texlive/2015/texmf-dist/fonts/tfm/public/cm/cmr6.tfm
INPUT /usr/local/texlive/2015/texmf-dist/fonts/tfm/public/cm/cmmi12.tfm
INPUT /usr/local/texlive/2015/texmf-dist/fonts/tfm/public/cm/cmmi8.tfm
INPUT /usr/local/texlive/2015/texmf-dist/fonts/tfm/public/cm/cmmi6.tfm
INPUT /usr/local/texlive/2015/texmf-dist/fonts/tfm/public/cm/cmsy10.tfm
INPUT /usr/local/texlive/2015/texmf-dist/fonts/tfm/public/cm/cmsy8.tfm
INPUT /usr/local/texlive/2015/texmf-dist/fonts/tfm/public/cm/cmsy6.tfm
INPUT /usr/local/texlive/2015/texmf-dist/fonts/tfm/public/cm/cmex10.tfm
INPUT /usr/local/texlive/2015/texmf-dist/fonts/tfm/public/amsfonts/cmextra/cmex8.tfm
INPUT /usr/local/texlive/2015/texmf-dist/fonts/tfm/public/amsfonts/cmextra/cmex7.tfm
INPUT /usr/local/texlive/2015/texmf-dist/fonts/tfm/public/cm/cmss12.tfm
INPUT /usr/local/texlive/2015/texmf-dist/fonts/tfm/public/cm/cmss8.tfm
INPUT /usr/local/texlive/2015/texmf-dist/fonts/tfm/public/cm/cmss8.tfm
INPUT /usr/local/texlive/2015/texmf-dist/fonts/tfm/public/cm/cmtt12.tfm
INPUT /usr/local/texlive/2015/texmf-dist/fonts/tfm/public/cm/cmtt8.tfm
INPUT /usr/local/texlive/2015/texmf-dist/fonts/tfm/public/cm/cmtt8.tfm
OUTPUT Physics_Formula_Sheet.pdf
INPUT /usr/local/texlive/2015/texmf-dist/fonts/vf/bitstrea/charter/bchr7t.vf
INPUT /usr/local/texlive/2015/texmf-dist/fonts/tfm/bitstrea/charter/bchr8r.tfm
INPUT /usr/local/texlive/2015/texmf-var/fonts/map/pdftex/updmap/pdftex.map
INPUT /usr/local/texlive/2015/texmf-dist/fonts/vf/bitstrea/charter/bchr7t.vf
INPUT /usr/local/texlive/2015/texmf-dist/fonts/tfm/bitstrea/charter/bchr8r.tfm
INPUT /usr/local/texlive/2015/texmf-dist/fonts/vf/bitstrea/charter/bchr7t.vf
INPUT /usr/local/texlive/2015/texmf-dist/fonts/tfm/bitstrea/charter/bchr8r.tfm
INPUT /usr/local/texlive/2015/texmf-dist/fonts/tfm/bitstrea/charter/bchb7t.tfm
INPUT /usr/local/texlive/2015/texmf-dist/fonts/vf/bitstrea/charter/bchb7t.vf
INPUT /usr/local/texlive/2015/texmf-dist/fonts/tfm/bitstrea/charter/bchb8r.tfm
INPUT /usr/local/texlive/2015/texmf-dist/fonts/tfm/bitstrea/charter/bchr7t.tfm
INPUT /usr/local/texlive/2015/texmf-dist/fonts/vf/bitstrea/charter/bchr7t.vf
INPUT /usr/local/texlive/2015/texmf-dist/fonts/tfm/bitstrea/charter/bchr8r.tfm
INPUT /usr/local/texlive/2015/texmf-dist/fonts/tfm/bitstrea/charter/bchr7t.tfm
INPUT /usr/local/texlive/2015/texmf-dist/fonts/tfm/bitstrea/charter/bchb7t.tfm
INPUT /usr/local/texlive/2015/texmf-dist/fonts/tfm/bitstrea/charter/bchb7t.tfm
INPUT /usr/local/texlive/2015/texmf-dist/fonts/tfm/bitstrea/charter/bchr7t.tfm
INPUT /usr/local/texlive/2015/texmf-dist/tex/latex/psnfss/omsbch.fd
INPUT /usr/local/texlive/2015/texmf-dist/tex/latex/psnfss/omsbch.fd
INPUT /usr/local/texlive/2015/texmf-dist/fonts/vf/bitstrea/charter/bchb7t.vf
INPUT /usr/local/texlive/2015/texmf-dist/fonts/tfm/bitstrea/charter/bchb8r.tfm
INPUT /usr/local/texlive/2015/texmf-dist/fonts/vf/bitstrea/charter/bchb7t.vf
INPUT /usr/local/texlive/2015/texmf-dist/fonts/tfm/bitstrea/charter/bchb8r.tfm
INPUT Physics_Formula_Sheet.aux
INPUT /usr/local/texlive/2015/texmf-dist/fonts/enc/dvips/base/8r.enc
INPUT /usr/local/texlive/2015/texmf-dist/fonts/type1/bitstrea/charter/bchb8a.pfb
INPUT /usr/local/texlive/2015/texmf-dist/fonts/type1/bitstrea/charter/bchr8a.pfb
INPUT /usr/local/texlive/2015/texmf-dist/fonts/type1/public/amsfonts/cm/cmex10.pfb
INPUT /usr/local/texlive/2015/texmf-dist/fonts/type1/public/amsfonts/cm/cmmi10.pfb
INPUT /usr/local/texlive/2015/texmf-dist/fonts/type1/public/amsfonts/cm/cmmi5.pfb
INPUT /usr/local/texlive/2015/texmf-dist/fonts/type1/public/amsfonts/cm/cmmi7.pfb
INPUT /usr/local/texlive/2015/texmf-dist/fonts/type1/public/amsfonts/cm/cmr10.pfb
INPUT /usr/local/texlive/2015/texmf-dist/fonts/type1/public/amsfonts/cm/cmr5.pfb
INPUT /usr/local/texlive/2015/texmf-dist/fonts/type1/public/amsfonts/cm/cmr7.pfb
INPUT /usr/local/texlive/2015/texmf-dist/fonts/type1/public/amsfonts/cm/cmsy10.pfb
INPUT /usr/local/texlive/2015/texmf-dist/fonts/type1/public/amsfonts/cm/cmsy5.pfb
INPUT /usr/local/texlive/2015/texmf-dist/fonts/type1/public/amsfonts/cm/cmsy7.pfb
